[
    {
        "rank": 1,
        "username": "yujincheng08",
        "name": "LoveSy",
        "url": "https://github.com/yujincheng08",
        "avatar": "https://avatars.githubusercontent.com/u/5022927?s=96&v=4",
        "since": "daily",
        "popularRepository": {
            "repositoryName": "BiliRoaming",
            "description": "哔哩漫游，解除B站客户端番剧区域限制的Xposed模块，并且提供其他小功能。An Xposed module that unblocks bangumi area limit of BILIBILI with miscellaneous features.",
            "url": "https://github.com/yujincheng08/BiliRoaming"
        }
    },
    {
        "rank": 2,
        "username": "niklasvh",
        "name": "Niklas von Hertzen",
        "url": "https://github.com/niklasvh",
        "avatar": "https://avatars.githubusercontent.com/u/551347?s=96&v=4",
        "since": "daily",
        "popularRepository": {
            "repositoryName": "html2canvas",
            "description": "Screenshots with JavaScript",
            "url": "https://github.com/niklasvh/html2canvas"
        }
    },
    {
        "rank": 3,
        "username": "hrydgard",
        "name": "Henrik Rydgård",
        "url": "https://github.com/hrydgard",
        "avatar": "https://avatars.githubusercontent.com/u/130929?s=96&v=4",
        "since": "daily",
        "popularRepository": {
            "repositoryName": "ppsspp",
            "description": "A PSP emulator for Android, Windows, Mac and Linux, written in C++. Want to contribute? Join us on Discord athttps://discord.gg/5NJB6dDor just send pull requests / issues. For discussion use the forums on ppsspp.org.",
            "url": "https://github.com/hrydgard/ppsspp"
        }
    },
    {
        "rank": 4,
        "username": "DenverCoder1",
        "name": "Jonah Lawrence",
        "url": "https://github.com/DenverCoder1",
        "avatar": "https://avatars.githubusercontent.com/u/20955511?s=96&v=4",
        "since": "daily",
        "popularRepository": {
            "repositoryName": "github-readme-streak-stats",
            "description": "🔥Stay motivated and show off your contribution streak!🌟Display your total contributions, current streak, and longest streak on your GitHub profile README",
            "url": "https://github.com/DenverCoder1/github-readme-streak-stats"
        }
    },
    {
        "rank": 5,
        "username": "adamralph",
        "name": "Adam Ralph",
        "url": "https://github.com/adamralph",
        "avatar": "https://avatars.githubusercontent.com/u/677704?s=96&v=4",
        "since": "daily",
        "popularRepository": {
            "repositoryName": "bullseye",
            "description": "🎯A .NET library for running a target dependency graph.",
            "url": "https://github.com/adamralph/bullseye"
        }
    },
    {
        "rank": 6,
        "username": "marten-seemann",
        "name": "Marten Seemann",
        "url": "https://github.com/marten-seemann",
        "avatar": "https://avatars.githubusercontent.com/u/1478487?s=96&v=4",
        "since": "daily",
        "popularRepository": {
            "repositoryName": "quic-interop-runner",
            "description": "QUIC interop runner",
            "url": "https://github.com/marten-seemann/quic-interop-runner"
        }
    },
    {
        "rank": 7,
        "username": "fatedier",
        "name": "fatedier",
        "url": "https://github.com/fatedier",
        "avatar": "https://avatars.githubusercontent.com/u/7346661?s=96&v=4",
        "since": "daily",
        "popularRepository": {
            "repositoryName": "frp",
            "description": "A fast reverse proxy to help you expose a local server behind a NAT or firewall to the internet.",
            "url": "https://github.com/fatedier/frp"
        }
    },
    {
        "rank": 8,
        "username": "goldbergyoni",
        "name": "Yoni Goldberg",
        "url": "https://github.com/goldbergyoni",
        "avatar": "https://avatars.githubusercontent.com/u/8571500?s=96&v=4",
        "since": "daily",
        "popularRepository": {
            "repositoryName": "nodebestpractices",
            "description": "✅The Node.js best practices list (August 2021)",
            "url": "https://github.com/goldbergyoni/nodebestpractices"
        }
    },
    {
        "rank": 9,
        "username": "styfle",
        "name": "Steven",
        "url": "https://github.com/styfle",
        "avatar": "https://avatars.githubusercontent.com/u/229881?s=96&v=4",
        "since": "daily",
        "popularRepository": {
            "repositoryName": "breaking-changes-web",
            "description": "💢A list of breaking changes to the web platform",
            "url": "https://github.com/styfle/breaking-changes-web"
        }
    },
    {
        "rank": 10,
        "username": "rrousselGit",
        "name": "Remi Rousselet",
        "url": "https://github.com/rrousselGit",
        "avatar": "https://avatars.githubusercontent.com/u/20165741?s=96&v=4",
        "since": "daily",
        "popularRepository": {
            "repositoryName": "river_pod",
            "description": "A simple way to access state while robust and testable.",
            "url": "https://github.com/rrousselGit/river_pod"
        }
    },
    {
        "rank": 11,
        "username": "elprans",
        "name": "Elvis Pranskevichus",
        "url": "https://github.com/elprans",
        "avatar": "https://avatars.githubusercontent.com/u/347119?s=96&v=4",
        "since": "daily",
        "popularRepository": {
            "repositoryName": null,
            "description": null,
            "url": null
        }
    },
    {
        "rank": 12,
        "username": "bep",
        "name": "Bjørn Erik Pedersen",
        "url": "https://github.com/bep",
        "avatar": "https://avatars.githubusercontent.com/u/394382?s=96&v=4",
        "since": "daily",
        "popularRepository": {
            "repositoryName": "docuapi",
            "description": "Beautiful multilingual API documentation theme for Hugo",
            "url": "https://github.com/bep/docuapi"
        }
    },
    {
        "rank": 13,
        "username": "patrick91",
        "name": "Patrick Arminio",
        "url": "https://github.com/patrick91",
        "avatar": "https://avatars.githubusercontent.com/u/667029?s=96&v=4",
        "since": "daily",
        "popularRepository": {
            "repositoryName": null,
            "description": null,
            "url": null
        }
    },
    {
        "rank": 14,
        "username": "johnnychen94",
        "name": "Johnny Chen",
        "url": "https://github.com/johnnychen94",
        "avatar": "https://avatars.githubusercontent.com/u/8684355?s=96&v=4",
        "since": "daily",
        "popularRepository": {
            "repositoryName": "colab-julia-bootstrap",
            "description": "This template helps you setup julia on google colab",
            "url": "https://github.com/johnnychen94/colab-julia-bootstrap"
        }
    },
    {
        "rank": 15,
        "username": "lemire",
        "name": "Daniel Lemire",
        "url": "https://github.com/lemire",
        "avatar": "https://avatars.githubusercontent.com/u/391987?s=96&v=4",
        "since": "daily",
        "popularRepository": {
            "repositoryName": "Code-used-on-Daniel-Lemire-s-blog",
            "description": "This is a repository for the code posted on my blog",
            "url": "https://github.com/lemire/Code-used-on-Daniel-Lemire-s-blog"
        }
    },
    {
        "rank": 16,
        "username": "timholy",
        "name": "Tim Holy",
        "url": "https://github.com/timholy",
        "avatar": "https://avatars.githubusercontent.com/u/1525481?s=96&v=4",
        "since": "daily",
        "popularRepository": {
            "repositoryName": "SnoopCompile.jl",
            "description": "Making packages work faster with more extensive precompilation",
            "url": "https://github.com/timholy/SnoopCompile.jl"
        }
    },
    {
        "rank": 17,
        "username": "hyochan",
        "name": "Hyo",
        "url": "https://github.com/hyochan",
        "avatar": "https://avatars.githubusercontent.com/u/27461460?s=96&v=4",
        "since": "daily",
        "popularRepository": {
            "repositoryName": "react-native-audio-recorder-player",
            "description": "react-native native module for audio recorder and player.",
            "url": "https://github.com/hyochan/react-native-audio-recorder-player"
        }
    },
    {
        "rank": 18,
        "username": "ariya",
        "name": "Ariya Hidayat",
        "url": "https://github.com/ariya",
        "avatar": "https://avatars.githubusercontent.com/u/7288?s=96&v=4",
        "since": "daily",
        "popularRepository": {
            "repositoryName": "berkala",
            "description": "Run scheduled tasks",
            "url": "https://github.com/ariya/berkala"
        }
    },
    {
        "rank": 19,
        "username": "tkf",
        "name": "Takafumi Arakaki",
        "url": "https://github.com/tkf",
        "avatar": "https://avatars.githubusercontent.com/u/29282?s=96&v=4",
        "since": "daily",
        "popularRepository": {
            "repositoryName": "Reagents.jl",
            "description": "Composable nonblocking and synchronization programming framework",
            "url": "https://github.com/tkf/Reagents.jl"
        }
    },
    {
        "rank": 20,
        "username": "casey",
        "name": "Casey Rodarmor",
        "url": "https://github.com/casey",
        "avatar": "https://avatars.githubusercontent.com/u/1945?s=96&v=4",
        "since": "daily",
        "popularRepository": {
            "repositoryName": "just",
            "description": "🤖Just a command runner",
            "url": "https://github.com/casey/just"
        }
    },
    {
        "rank": 21,
        "username": "chrisbanes",
        "name": "Chris Banes",
        "url": "https://github.com/chrisbanes",
        "avatar": "https://avatars.githubusercontent.com/u/227486?s=96&v=4",
        "since": "daily",
        "popularRepository": {
            "repositoryName": "tivi",
            "description": "Tivi is a work-in-progress TV show tracking Android app, which connects to Trakt.tv. It is still in its early stages of development and currently only contains two pieces of UI. It is under heavy development.",
            "url": "https://github.com/chrisbanes/tivi"
        }
    },
    {
        "rank": 22,
        "username": "josegonzalez",
        "name": "Jose Diaz-Gonzalez",
        "url": "https://github.com/josegonzalez",
        "avatar": "https://avatars.githubusercontent.com/u/65675?s=96&v=4",
        "since": "daily",
        "popularRepository": {
            "repositoryName": "python-github-backup",
            "description": "backup a github user or organization",
            "url": "https://github.com/josegonzalez/python-github-backup"
        }
    },
    {
        "rank": 23,
        "username": "matthewp",
        "name": "Matthew Phillips",
        "url": "https://github.com/matthewp",
        "avatar": "https://avatars.githubusercontent.com/u/361671?s=96&v=4",
        "since": "daily",
        "popularRepository": {
            "repositoryName": "ocean",
            "description": "Web component server-side rendering",
            "url": "https://github.com/matthewp/ocean"
        }
    },
    {
        "rank": 24,
        "username": "hawkw",
        "name": "Eliza Weisman",
        "url": "https://github.com/hawkw",
        "avatar": "https://avatars.githubusercontent.com/u/2796466?s=96&v=4",
        "since": "daily",
        "popularRepository": {
            "repositoryName": "sharded-slab",
            "description": "a lock-free concurrent slab (experimental)",
            "url": "https://github.com/hawkw/sharded-slab"
        }
    },
    {
        "rank": 25,
        "username": "jonataslaw",
        "name": "Jonny Borges",
        "url": "https://github.com/jonataslaw",
        "avatar": "https://avatars.githubusercontent.com/u/35742643?s=96&v=4",
        "since": "daily",
        "popularRepository": {
            "repositoryName": "getx",
            "description": "Open screens/snackbars/dialogs/bottomSheets without context, manage states and inject dependencies easily with Get.",
            "url": "https://github.com/jonataslaw/getx"
        }
    }
]